Manuscript 2 from Fernanda Hansen P. de Moraes Thesis - Cortical folding alterations in humans due to aging and diseases
…
5.6.1 Slope

5.7 Diagnostic discrimination based on changing rates

Description of the procedures and analysis present in Manuscript 2, Establishing a baseline for human cortical folding morphological variables: a multicenter study, at the Doctorate Thesis presented to the Programa de Ps-Graduao em Cincias Mdicas at the Instituto DOr de Pesquisa e Ensino as a partial requirement to obtain the Doctorate Degree.

Part of the data used here cannot be shared due to restrictions of the Ethic Committee. Data can be shared upon reasonable request to the corresponding author. To fulfill these limitation, we will generate random data to simulate the results.

Get in touch with us (fernandahmoraes@gmail.com) in case any help is needed, our aim is to improve the code as needed!

1 RMARKDOWN AND R SETUP

2 set seed for random process

## # A tibble: 36,092 x 25
##    machine            SUBJ      Age Gender Diagnostic ConvexHullArea PialFullArea
##    <chr>              <chr>   <dbl> <chr>  <chr>               <dbl>        <dbl>
##  1 Philips-Achieva 3T SUBJ002  72.8 FEM    CTL                40014.      109571.
##  2 Philips-Achieva 3T SUBJ002  72.8 FEM    CTL                40750.      110858.
##  3 Philips-Achieva 3T SUBJ002  72.8 FEM    CTL                   NA           NA 
##  4 Philips-Achieva 3T SUBJ002  72.8 FEM    CTL                   NA           NA 
##  5 Philips-Achieva 3T SUBJ002  72.8 FEM    CTL                   NA           NA 
##  6 Philips-Achieva 3T SUBJ002  72.8 FEM    CTL                   NA           NA 
##  7 Philips-Achieva 3T SUBJ002  72.8 FEM    CTL                   NA           NA 
##  8 Philips-Achieva 3T SUBJ002  72.8 FEM    CTL                   NA           NA 
##  9 Philips-Achieva 3T SUBJ002  72.8 FEM    CTL                   NA           NA 
## 10 Philips-Achieva 3T SUBJ002  72.8 FEM    CTL                   NA           NA 
## # ... with 36,082 more rows, and 18 more variables: WhiteFullArea <dbl>,
## #   SmoothPialFullArea <dbl>, ConvexHullFullArea <dbl>, PialFullVol <dbl>,
## #   WhiteFullVol <dbl>, SmoothPialFullVol <dbl>, ROI <chr>,
## #   GaussianCurvature <dbl>, PialVol <dbl>, WhiteVol <dbl>, Sample <chr>,
## #   FieldStrenght <dbl>, hemi <chr>, AvgThickness <dbl>, TotalArea <dbl>,
## #   ExposedArea <dbl>, WhiteSurfArea <dbl>, GMvolume <dbl>
…
